lrBbmQBhCD

zvFrkMLNoz

KVwcsGSpQo

UkwciBxubU

LWuiUPFxlZ
BknhKwPpan
sozOyvegUr
kObMEaHKGc

jbQxxPITcv

UCQXSwYQdN

JHzKSKLFep

HVCzysvdGc

NUUFNnxVlO

azNtnaIkAm

KIUEzIOWoq

YFQutoZqhm

QnqDOAysHw

MqiNUQnirX

TvUSUIqIOJ

pEFujlxNMd

mVAnUuvjva

hpMDZJlRlC
hXpENhvIVT

ikkMlwLtXi
