Candidate1

Candidate2

Candidate1

Candidate2

Candidate2

Candidate6

Candidate5

Candidate7

Candidate2

Candidate8

Candidate8

Candidate5

Candidate7

Candidate2

Candidate2
Candidate10

Candidate8

Candidate6

Candidate17

Candidate17

Candidate20
