Grace Grant

Pamela Engle

Pauline Terry

Amy Jandres

Jeanmarie Blanks

Janae Pennington

Gloria Douthitt

William Arnold

William Bowman

William Seibel

Cynthia Gupta

Troy Smith

Frank Eddy

Reuben Galayda
